DM Project
…
diabetic.data[diabetic.data$admission_type_id == 7,]$admission_type_id = 1
diabetic.data[diabetic.data$admission_type_id == 4,]$admission_type_id = 2
diabetic.data[diabetic.data$admission_type_id %in% c(5,6,8),]$admission_type_id = 4

New mapping 1 Emergency 2 Urgent 3 Elective 4 Not Available

discharge_disposition_id

diabetic.data %>%
  group_by(discharge_disposition_id) %>%
  summarise(count = n()) %>%
  mutate(ratio = count/sum(count))

## # A tibble: 26 x 3
##    discharge_disposition_id count     ratio
##                       <int> <int>     <dbl>
##  1                        1 60234 0.592    
##  2                        2  2128 0.0209   
##  3                        3 13954 0.137    
##  4                        4   815 0.00801  
##  5                        5  1184 0.0116   
##  6                        6 12902 0.127    
##  7                        7   623 0.00612  
##  8                        8   108 0.00106  
##  9                        9    21 0.000206 
## 10                       10     6 0.0000590
## # ... with 16 more rows
…
diabetic.data[diabetic.data$admission_source_id %in% c(7,11:14,23,24),]$admission_source_id = 2

diabetic.data[diabetic.data$admission_source_id %in% c(9,15,17,20,21 ),]$admission_source_id = 3

New mapping, referals 1, urgent or emergency,2 nas are 3

medical_specialty

diabetic.data %>%
  group_by(medical_specialty) %>%
  summarise(count = n()) %>%
  arrange(desc(count)) %>%
  mutate(ratio = count/sum(count))

## # A tibble: 73 x 3
##    medical_specialty          count  ratio
##    <chr>                      <int>  <dbl>
##  1 ?                          49949 0.491 
##  2 InternalMedicine           14635 0.144 
##  3 Emergency/Trauma            7565 0.0743
##  4 Family/GeneralPractice      7440 0.0731
##  5 Cardiology                  5352 0.0526
##  6 Surgery-General             3099 0.0305
##  7 Nephrology                  1613 0.0159
##  8 Orthopedics                 1400 0.0138
##  9 Orthopedics-Reconstructive  1233 0.0121
## 10 Radiologist                 1140 0.0112
## # ... with 63 more rows
…
